<svg xmlns="http://www.w3.org/2000/svg" width="32" height="32" viewBox="0 0 32 32">
  <metadata><?xpacket begin="﻿" id="W5M0MpCehiHzreSzNTczkc9d"?>
<x:xmpmeta xmlns:x="adobe:ns:meta/" x:xmptk="Adobe XMP Core 5.6-c138 79.159824, 2016/09/14-01:09:01        ">
   <rdf:RDF xmlns:rdf="http://www.w3.org/1999/02/22-rdf-syntax-ns#">
      <rdf:Description rdf:about=""/>
   </rdf:RDF>
</x:xmpmeta>
                                                                                                    
                                                                                                    
                                                                                                    
                                                                                                    
                                                                                                    
                                                                                                    
                                                                                                    
                                                                                                    
                                                                                                    
                                                                                                    
                                                                                                    
                                                                                                    
                                                                                                    
                                                                                                    
                                                                                                    
                                                                                                    
                                                                                                    
                                                                                                    
                                                                                                    
                                                                                                    
                           
<?xpacket end="w"?></metadata>
<defs>
    <style>
      .cls-1 {
        fill: #8f8f8f;
        fill-rule: evenodd;
      }
    </style>
  </defs>
  <path id="Instagram_копия" data-name="Instagram копия" class="cls-1" d="M16.089,19.2A3.2,3.2,0,1,0,12.906,16a3.2,3.2,0,0,0,3.183,3.2h0Zm0,0,6.952-7.123V8.99h-0.4L19.973,9l0.013,3.085Zm0,0M16.089-.011A16.008,16.008,0,1,0,31.991,16,15.972,15.972,0,0,0,16.089-.011h0Zm9.044,14.139v7.455a3.509,3.509,0,0,1-3.5,3.517H10.543a3.508,3.508,0,0,1-3.494-3.517V10.413a3.509,3.509,0,0,1,3.494-3.519H21.637a3.51,3.51,0,0,1,3.5,3.519v3.715Zm0,0M21.037,16a4.945,4.945,0,1,1-9.528-1.867H8.81v7.455a1.736,1.736,0,0,0,1.732,1.742H21.637a1.736,1.736,0,0,0,1.732-1.742V14.128h-2.7A5.015,5.015,0,0,1,21.037,16h0Zm0,0"/>
</svg>
