<svg xmlns="http://www.w3.org/2000/svg" width="32" height="32" viewBox="0 0 32 32">
  <metadata><?xpacket begin="﻿" id="W5M0MpCehiHzreSzNTczkc9d"?>
<x:xmpmeta xmlns:x="adobe:ns:meta/" x:xmptk="Adobe XMP Core 5.6-c138 79.159824, 2016/09/14-01:09:01        ">
   <rdf:RDF xmlns:rdf="http://www.w3.org/1999/02/22-rdf-syntax-ns#">
      <rdf:Description rdf:about=""/>
   </rdf:RDF>
</x:xmpmeta>
                                                                                                    
                                                                                                    
                                                                                                    
                                                                                                    
                                                                                                    
                                                                                                    
                                                                                                    
                                                                                                    
                                                                                                    
                                                                                                    
                                                                                                    
                                                                                                    
                                                                                                    
                                                                                                    
                                                                                                    
                                                                                                    
                                                                                                    
                                                                                                    
                                                                                                    
                                                                                                    
                           
<?xpacket end="w"?></metadata>
<defs>
    <style>
      .cls-1 {
        fill: #8f8f8f;
        fill-rule: evenodd;
      }
    </style>
  </defs>
  <path id="Youtube_копия" data-name="Youtube копия" class="cls-1" d="M8.479,17.173H9.74v6.868h1.193V17.173h1.284V16.049H8.479v1.124Zm0,0,10.089,0.84a1.454,1.454,0,0,0-1.109.646V16.049H16.386v7.992h1.073V23.464a1.466,1.466,0,0,0,1.109.659,0.852,0.852,0,0,0,.856-0.67,4.785,4.785,0,0,0,.108-1.2V19.883a4.624,4.624,0,0,0-.108-1.2,0.85,0.85,0,0,0-.856-0.674h0ZM18.46,22.338c0,0.538-.156.8-0.466,0.8a0.764,0.764,0,0,1-.535-0.264V19.246a0.774,0.774,0,0,1,.535-0.262c0.308,0,.466.275,0.466,0.813v2.541Zm0,0-4.074.3a0.939,0.939,0,0,1-.679.5,0.247,0.247,0,0,1-.251-0.252,3.5,3.5,0,0,1-.009-0.42V18.086H12.373v4.708a3.034,3.034,0,0,0,.1.886,0.661,0.661,0,0,0,.691.443,1.717,1.717,0,0,0,1.226-.732v0.651h1.074V18.086H14.385v4.549Zm0,0,0.921-10.05c0.348,0,.516-0.279.516-0.837V9.218c0-.556-0.168-0.834-0.516-0.834s-0.518.278-.518,0.834v2.53c0,0.558.168,0.837,0.518,0.837h0Zm0,0M16.03-.008a16,16,0,1,0,15.9,16,15.953,15.953,0,0,0-15.9-16h0ZM17.8,7.476h1.08v4.429a2.618,2.618,0,0,0,.013.423,0.249,0.249,0,0,0,.254.257,0.954,0.954,0,0,0,.685-0.51v-4.6h1.084v6.017H19.831V12.836a1.734,1.734,0,0,1-1.238.739,0.668,0.668,0,0,1-.7-0.447,3.108,3.108,0,0,1-.1-0.9V7.476ZM13.705,9.437a2.354,2.354,0,0,1,.338-1.418,1.6,1.6,0,0,1,2.527,0,2.377,2.377,0,0,1,.337,1.418v2.107a2.363,2.363,0,0,1-.337,1.415,1.6,1.6,0,0,1-2.527,0,2.338,2.338,0,0,1-.338-1.415V9.437Zm-2.9-4.019L11.66,8.589l0.82-3.171H13.7l-1.446,4.8v3.271h-1.2V10.222a20.144,20.144,0,0,0-.736-2.554C10.06,6.918,9.8,6.168,9.541,5.418h1.265ZM24.592,24.564a2.247,2.247,0,0,1-1.918,1.755,59.059,59.059,0,0,1-6.645.247,59.074,59.074,0,0,1-6.646-.247,2.248,2.248,0,0,1-1.918-1.755,19.263,19.263,0,0,1-.308-4.218,19.189,19.189,0,0,1,.313-4.221,2.246,2.246,0,0,1,1.916-1.755,59.425,59.425,0,0,1,6.645-.246,59.421,59.421,0,0,1,6.646.246,2.25,2.25,0,0,1,1.92,1.755,19.3,19.3,0,0,1,.305,4.221,19.148,19.148,0,0,1-.31,4.218h0Zm0,0-2.609-6.552a1.518,1.518,0,0,0-1.284.611,2.337,2.337,0,0,0-.331,1.4v2.087a2.32,2.32,0,0,0,.343,1.4,1.533,1.533,0,0,0,1.3.61,1.479,1.479,0,0,0,1.3-.646,1.549,1.549,0,0,0,.251-0.646c0.009-.109.022-0.347,0.022-0.7V21.979H22.486a7.075,7.075,0,0,1-.024.73,0.462,0.462,0,0,1-.48.431c-0.367,0-.548-0.274-0.548-0.825V21.259H23.58V20.026a2.348,2.348,0,0,0-.332-1.4,1.482,1.482,0,0,0-1.265-.611h0Zm0.526,2.348H21.436V19.812c0-.552.18-0.827,0.537-0.827s0.536,0.275.536,0.827V20.36Zm0,0"/>
</svg>
